2457197	2360
2457198	2310
2457199	1410
2457200	2020
2457201	1500
2457202	1530
2457203	1840
2457204	1500
2457205	1470
2457206	1850
2457207	0
2457208	0
2457209	2581
2457210	1612
2457211	2180
2457212	1620
2457213	1620
2457214	1270
2457215	2670
2457216	1800
2457217	1725
2457218	1480
2457219	0
2457220	0
2457221	1520
2457222	2262
2457223	2190
2457224	1610
2457225	1685
2457226	1485
2457227	1715
2457228	1970
2457229	1955
2457230	2105
2457231	1910
2457232	1797
2457233	1845
2457234	2160
2457235	2002
2457236	2110
2457237	1765
2457238	1265
2457239	1845
2457240	1825
2457241	1865
2457242	1780
2457243	1600
2457244	1978
2457245	1855
2457246	1435
2457247	1700
2457248	1176
2457249	2050
2457250	2105
2457251	1525
2457252	1710
2457253	1685
2457254	1700
2457255	1770
2457256	1950
2457257	1850
2457258	0
2457259	1775
2457260	1760
2457261	2010
2457262	2395
2457263	2040
2457264	1805
2457265	1405
2457266	1310
2457267	1510
2457268	1665
2457269	1820
2457270	1285
2457271	2045
2457272	1735
2457273	1715
2457274	2410
2457275	2420
2457276	1895
2457277	2055
2457278	1860
2457279	1740
2457280	1598
2457281	1650
2457282	2250
2457283	1830
2457284	1945
2457285	1855
2457286	1980
2457287	2000
2457288	2600
2457289	2210
2457290	1890
2457291	1877
2457292	1830
2457293	2960
2457294	2100
2457295	2740
2457296	1917
2457297	1395
2457298	2100
2457299	1857
2457300	2300
2457301	1715
2457302	1980
2457303	1975
2457304	1825
2457305	1970
2457306	1750
2457307	2105
2457308	2155
2457309	1745
2457310	1738
2457311	1680
2457312	1706
2457313	1550
2457314	1375
2457315	1695
2457316	1620
2457317	1171
2457318	1615
2457319	1719
2457320	1665
2457321	1785
2457322	1332
2457323	1399
2457324	1328
2457325	1559
2457326	1728
2457327	1905
2457328	1430
2457329	1778
2457330	1785
2457331	1580
2457332	1733
2457333	1978
2457334	1140
2457335	2123
2457336	1828
2457337	1922
2457338	1580
2457339	2044
2457340	1802
2457341	1669
2457342	1580
2457343	1345
2457344	1988
2457345	1802
2457346	1830
2457347	2220
2457348	1845
2457349	1660
2457350	1880
2457351	1505
2457352	1400
2457353	1825
2457354	1660
2457355	1710
2457356	1735
2457357	1890
2457358	2228
2457359	1915
2457360	2210
2457361	1848
2457362	1865
2457363	1930
2457364	1495
2457365	1560
2457366	1300
2457367	1650
2457368	1685
2457369	1745
2457370	1315
2457371	1540
2457372	2045
2457373	1680
2457374	1988
2457375	1385
2457376	1890
2457377	1795
2457378	1995
2457379	1889
2457380	1915
2457381	1829
2457382	1815
2457383	1635
2457384	1839
2457385	1677
2457386	1545
2457387	1680
2457388	1605
2457389	1395
2457390	2012
2457391	2010
2457392	2195
2457393	1830
2457394	1715
2457395	1620
2457396	1575
2457397	1920
2457398	1750
2457399	2380
2457400	1640
2457401	2320
2457402	1735
2457403	1838
2457404	1595
2457405	1660
2457406	1380
2457407	1210
2457408	1956
2457409	1225
2457410	1940
2457411	1645
2457412	1920
2457413	1510
2457414	1755
2457415	1760
2457416	1555
2457417	1255
2457418	2030
2457419	1680
2457420	1760
2457421	1675
2457422	2025
2457423	1755
2457424	1640
2457425	1715
2457426	1585
2457427	2185
2457428	1535
2457429	1790
2457430	1570
2457431	1600
2457432	1525
2457433	1875
2457434	1735
2457435	1985
2457436	1841
2457437	1780
2457438	1651
2457439	1805
2457440	1570
2457441	1310
2457442	1565
2457443	1015
2457444	1595
2457445	1040
2457446	1720
2457447	1630
2457448	1620
2457449	1625
2457450	1400
2457451	1390
2457452	1730
2457453	1760
2457454	1565
2457455	1995
2457456	1315
2457457	1460
2457458	1450
2457459	1745
2457460	1730
2457461	1800
2457462	1885
2457463	1700
2457464	1440
2457465	1910
2457466	1770
2457467	1858
2457468	1665
2457469	2025
2457470	1605
2457471	1600
2457472	2165
2457473	1300
2457474	1820
2457475	1935
2457476	1580
2457477	1560
2457478	1565
2457479	1710
2457480	1750
2457481	1310
2457482	1330
2457483	1375
2457484	1770
2457485	1460
2457486	1780
2457487	2035
2457488	2055
2457489	1770
2457490	1960
2457491	2005
2457492	1440
2457493	1770
2457494	1725
2457495	1890
2457496	1990
2457497	1890
2457498	1635
2457499	2175
2457500	1950
2457501	1685
2457502	1595
2457503	1305
2457504	1210
2457505	1680
2457506	1375
2457507	1830
2457508	1960
2457509	1550
2457510	1905
2457511	1775
2457512	1530
2457513	1510
2457514	1825
2457515	1980
2457516	1525
2457517	1925
2457518	1615
2457519	1755
2457520	1695
2457521	2155
2457522	1525
2457523	2275
2457524	0
2457525	1965
2457526	1220
2457527	1600
2457528	1530
2457529	1725
2457530	1820
2457531	1385
2457532	1705
2457533	1960
2457534	1875
2457535	1895
2457536	1705
2457537	1615
2457538	1675
2457539	2470
2457540	1480
2457541	2275
2457542	1520
2457543	2125
2457544	1655
2457545	1850
2457546	1800
2457547	1555
2457548	1440
2457549	1390
2457550	1725
2457551	1875
2457552	1795
2457553	1460
2457554	1820
2457555	1855
2457556	1915
2457557	1550
2457558	1885
2457559	2150
2457560	1890
2457561	1620
2457562	895
