01-02-2016	200
01-03-2016	200
01-04-2016	200
01-05-2016	199.4
01-06-2016	199.2
01-07-2016	200.4
01-08-2016	199.8
01-09-2016	199.4
01-10-2016	199.8
01-11-2016	200.2
01-12-2016	201.2
01-13-2016	201
01-14-2016	201
01-15-2016	201.8
01-16-2016	202
01-17-2016	201.8
01-18-2016	201.8
01-21-2016	203.8
01-23-2016	203.2
01-24-2016	202.4
01-25-2016	203
01-26-2016	204
01-27-2016	203.2
01-29-2016	204
01-30-2016	205.6
01-31-2016	205.2
02-01-2016	203.6
02-03-2016	204.5
02-04-2016	204
02-05-2016	204.6
02-06-2016	205
02-08-2016	205
02-09-2016	205
02-10-2016	204.4
02-11-2016	205
02-12-2016	203.6
02-15-2016	205
02-17-2016	206.4
02-18-2016	206
02-20-2016	205
02-22-2016	206
02-23-2016	206
02-24-2016	206
02-25-2016	204.6
02-26-2016	204.2
02-27-2016	203.8
02-29-2016	204
03-05-2016	204
03-12-2016	205.4
03-14-2016	204.5
03-15-2016	203.4
03-17-2016	203.8
03-18-2016	205
03-19-2016	204.2
03-21-2016	203
03-22-2016	203.5
03-27-2016	204
03-28-2016	206
03-29-2016	206
03-30-2016	207
04-02-2016	206
04-09-2016	206
04-13-2016	206
04-15-2016	208
04-16-2016	207
04-18-2016	204.8
04-19-2016	205
04-25-2016	205
04-26-2016	205.6
04-28-2015	209
04-28-2016	206
04-29-2015	209.2
04-29-2016	205
04-30-2015	209.8
04-30-2016	205
05-01-2015	208.6
05-02-2015	206.8
05-02-2016	205
05-03-2015	208
05-04-2015	210
05-05-2015	207.8
05-05-2016	203.6
05-06-2015	208.4
05-06-2016	203.8
05-07-2015	206
05-08-2015	208.8
05-09-2015	209.4
05-09-2016	204
05-10-2015	208.8
05-10-2016	203
05-11-2015	209.2
05-11-2016	203
05-12-2015	207.2
05-12-2016	204
05-13-2015	206.2
05-14-2015	207.4
05-15-2015	205.6
05-16-2015	205
05-16-2016	205
05-17-2015	206.8
05-17-2016	206
05-18-2015	207
05-19-2015	205.8
05-19-2016	204
05-20-2015	204.8
05-20-2016	204
05-21-2015	204.6
05-22-2015	205.4
05-23-2015	203.8
05-23-2016	203
05-24-2015	204.4
05-24-2016	203.2
05-25-2015	206
05-25-2016	202.2
05-26-2015	207
05-26-2016	204
05-27-2015	206.8
05-28-2015	206.2
05-28-2016	205
05-29-2015	207.8
05-30-2015	206.6
05-30-2016	203
05-31-2015	205
06-01-2015	207
06-02-2015	207.2
06-03-2015	206.8
06-05-2015	205.8
06-05-2016	204
06-06-2015	206
06-07-2015	208
06-07-2016	204
06-08-2015	208.2
06-08-2016	204.1
06-09-2015	207
06-09-2016	204.1
06-10-2015	206.6
06-10-2016	202.8
06-11-2015	206.6
06-11-2016	203.2
06-12-2015	204.2
06-12-2016	203.2
06-13-2015	205.6
06-13-2016	203
06-14-2015	204
06-14-2016	202.3
06-15-2016	202
06-16-2015	204.6
06-16-2016	202.1
06-17-2015	204.4
06-17-2016	202.2
06-18-2015	205.4
06-18-2016	201.9
06-19-2015	206
06-20-2015	206
06-21-2015	207
06-22-2015	207.2
06-22-2016	204
06-23-2015	205.6
06-23-2016	204
06-24-2015	207
06-25-2015	206.4
06-26-2015	206.2
06-27-2015	207.2
06-28-2015	206.4
06-29-2015	205.2
06-30-2015	206.2
07-01-2015	205.2
07-02-2015	206.2
07-03-2015	204.2
07-04-2015	205
07-05-2015	206.4
07-06-2015	207.5
07-08-2015	207
07-09-2015	206.6
07-10-2015	207.5
07-13-2015	206.2
07-14-2015	206.8
07-18-2015	209
07-19-2015	208.6
07-20-2015	207
07-22-2015	207.6
07-23-2015	206
07-24-2015	206
07-27-2015	206.4
07-28-2015	207
07-29-2015	205.2
07-30-2015	207.2
08-01-2015	206.6
08-03-2015	205.4
08-04-2015	205.4
08-05-2015	205.2
08-06-2015	205.2
08-07-2015	204.2
08-08-2015	204.2
08-09-2015	204.8
08-12-2015	204
08-13-2015	203.6
08-14-2015	205.6
08-16-2015	205.6
08-17-2015	205.6
08-18-2015	205
08-19-2015	205.4
08-22-2015	204.4
08-29-2015	204.4
08-30-2015	204
08-31-2015	203
09-01-2015	203
09-02-2015	202.8
09-03-2015	202.4
09-04-2015	200.8
09-05-2015	201
09-06-2015	201
09-08-2015	200.8
09-09-2015	202
09-11-2015	202.2
09-12-2015	202.4
09-13-2015	202.4
09-14-2015	201.8
09-15-2015	202.8
09-16-2015	201.4
09-17-2015	202.2
09-18-2015	201
09-19-2015	203
09-21-2015	202.8
09-22-2015	204
09-23-2015	204.2
09-24-2015	205.6
09-25-2015	203
09-26-2015	202.2
09-27-2015	202
09-28-2015	203.4
09-29-2015	202
10-01-2015	203.2
10-02-2015	203
10-03-2015	203
10-04-2015	202.4
10-06-2015	203
10-09-2015	203.2
10-11-2015	205
10-13-2015	205.8
10-14-2015	204.6
10-15-2015	206
10-16-2015	204.5
10-17-2015	204
10-18-2015	204
10-20-2015	203.2
10-21-2015	202
10-22-2015	202.4
10-23-2015	202.4
10-24-2015	202
10-25-2015	202.4
10-26-2015	200.6
10-27-2015	199.6
10-28-2015	199.6
10-29-2015	200.4
10-30-2015	199.6
10-31-2015	200.2
11-01-2015	201
11-02-2015	201
11-03-2015	200.6
11-05-2015	199
11-06-2015	200.4
11-08-2015	198.6
11-09-2015	200.6
11-10-2015	200
11-11-2015	199
11-12-2015	199
11-13-2015	201
11-14-2015	200.6
11-15-2015	200
11-16-2015	201
11-17-2015	201
11-18-2015	199.8
11-19-2015	200.4
11-20-2015	200.4
11-21-2015	201.4
11-22-2015	201.4
11-23-2015	202
11-24-2015	203
11-25-2015	202
11-26-2015	199
11-27-2015	201
11-28-2015	201
11-29-2015	201
12-01-2015	198.8
12-02-2015	199.6
12-03-2015	199
12-04-2015	199.4
12-05-2015	199.8
12-06-2015	201
12-07-2015	201
12-08-2015	201
12-09-2015	200
12-10-2015	199.2
12-11-2015	197.8
12-12-2015	198.2
12-13-2015	198.6
12-14-2015	197.8
12-15-2015	196.8
12-16-2015	196.8
12-17-2015	195.8
12-18-2015	199
12-19-2015	198.6
12-20-2015	198.6
12-21-2015	199
12-22-2015	201.6
12-23-2015	200
12-24-2015	201
12-25-2015	200
12-26-2015	202
12-27-2015	201.8
12-28-2015	201.2
12-29-2015	199.6
12-30-2015	201.8
12-31-2015	198.8
